(kicad_pcb (version 20211014) (generator pcbnew)

  (general
    (thickness 1.6)
  )

  (paper "A4")
  (layers
    (0 "F.Cu" signal)
    (31 "B.Cu" signal)
    (32 "B.Adhes" user "B.Adhesive")
    (33 "F.Adhes" user "F.Adhesive")
    (34 "B.Paste" user)
    (35 "F.Paste" user)
    (36 "B.SilkS" user "B.Silkscreen")
    (37 "F.SilkS" user "F.Silkscreen")
    (38 "B.Mask" user)
    (39 "F.Mask" user)
    (40 "Dwgs.User" user "User.Drawings")
    (41 "Cmts.User" user "User.Comments")
    (42 "Eco1.User" user "User.Eco1")
    (43 "Eco2.User" user "User.Eco2")
    (44 "Edge.Cuts" user)
    (45 "Margin" user)
    (46 "B.CrtYd" user "B.Courtyard")
    (47 "F.CrtYd" user "F.Courtyard")
    (48 "B.Fab" user)
    (49 "F.Fab" user)
    (50 "User.1" user)
    (51 "User.2" user)
    (52 "User.3" user)
    (53 "User.4" user)
    (54 "User.5" user)
    (55 "User.6" user)
    (56 "User.7" user)
    (57 "User.8" user)
    (58 "User.9" user)
  )

  (setup
    (pad_to_mask_clearance 0)
    (pcbplotparams
      (layerselection 0x00010fc_ffffffff)
      (disableapertmacros false)
      (usegerberextensions false)
      (usegerberattributes true)
      (usegerberadvancedattributes true)
      (creategerberjobfile true)
      (svguseinch false)
      (svgprecision 6)
      (excludeedgelayer true)
      (plotframeref false)
      (viasonmask false)
      (mode 1)
      (useauxorigin false)
      (hpglpennumber 1)
      (hpglpenspeed 20)
      (hpglpendiameter 15.000000)
      (dxfpolygonmode true)
      (dxfimperialunits true)
      (dxfusepcbnewfont true)
      (psnegative false)
      (psa4output false)
      (plotreference true)
      (plotvalue true)
      (plotinvisibletext false)
      (sketchpadsonfab false)
      (subtractmaskfromsilk false)
      (outputformat 1)
      (mirror false)
      (drillshape 1)
      (scaleselection 1)
      (outputdirectory "")
    )
  )

  (net 0 "")
  (net 1 "GND")
  (net 2 "unconnected-(J1-PadA2)")
  (net 3 "unconnected-(J1-PadA3)")
  (net 4 "Net-(J1-PadA4)")
  (net 5 "unconnected-(J1-PadA5)")
  (net 6 "Net-(J1-PadA6)")
  (net 7 "Net-(J1-PadA7)")
  (net 8 "unconnected-(J1-PadA8)")
  (net 9 "unconnected-(J1-PadA9)")
  (net 10 "unconnected-(J1-PadA10)")
  (net 11 "unconnected-(J1-PadA11)")
  (net 12 "unconnected-(J1-PadA12)")
  (net 13 "unconnected-(J1-PadB1)")
  (net 14 "unconnected-(J1-PadB2)")
  (net 15 "unconnected-(J1-PadB3)")
  (net 16 "unconnected-(J1-PadB4)")
  (net 17 "unconnected-(J1-PadB5)")
  (net 18 "unconnected-(J1-PadB8)")
  (net 19 "unconnected-(J1-PadB10)")
  (net 20 "unconnected-(J1-PadB11)")
  (net 21 "unconnected-(J1-PadB12)")

  (footprint "E8124-010-01:E8124-010-01" (layer "F.Cu")
    (tedit 0) (tstamp c304e9f0-05f3-418c-bf88-aa1f5819c7c0)
    (at 71.12 50.8)
    (property "Sheetfile" "Power_Sectionkicad_sch.kicad_sch")
    (property "Sheetname" "Power_Section")
    (path "/ab3d7b3a-bd6a-44ad-8cdf-4873210aa41a/d322577b-ce68-457c-b58e-7d842ef9770d")
    (attr through_hole)
    (fp_text reference "J1" (at 0 0) (layer "F.SilkS")
      (effects (font (size 1 1) (thickness 0.15)))
      (tstamp 9260a5e2-5abb-4e08-a6d6-99aaad341db9)
    )
    (fp_text value "E8124-010-01" (at 0 0) (layer "F.SilkS")
      (effects (font (size 1 1) (thickness 0.15)))
      (tstamp 5e588c3b-a5c5-463f-9c6a-c946215a6b88)
    )
    (fp_text user "*" (at -5.29209 -4.7192) (layer "F.SilkS")
      (effects (font (size 1 1) (thickness 0.15)))
      (tstamp 22b3d0d3-2269-43ae-a029-d0cad5380f14)
    )
    (fp_text user "*" (at -5.29209 -4.7192) (layer "F.SilkS")
      (effects (font (size 1 1) (thickness 0.15)))
      (tstamp ec6d6b98-ac96-49c1-8f4d-1b999fc09e27)
    )
    (fp_text user "Copyright 2021 Accelerated Designs. All rights reserved." (at 0 0) (layer "Cmts.User")
      (effects (font (size 0.127 0.127) (thickness 0.002)))
      (tstamp 303c9fae-27f7-4e0d-8f13-2779f2f72c18)
    )
    (fp_text user "*" (at -5.29209 -4.7192) (layer "F.Fab")
      (effects (font (size 1 1) (thickness 0.15)))
      (tstamp 7426c969-fe79-4ad1-a601-b50247b5c84a)
    )
    (fp_text user "*" (at -5.29209 -4.7192) (layer "F.Fab")
      (effects (font (size 1 1) (thickness 0.15)))
      (tstamp 744712be-1a5f-4c79-9dbf-9ad15fc25231)
    )
    (fp_line (start -4.114815 7.16928) (end -4.368808 7.296275) (layer "Cmts.User") (width 0.1) (tstamp 0320e116-d217-4cce-abc4-c61efd41043f))
    (fp_line (start 0.654034 -5.732534) (end 0.400041 -5.85953) (layer "Cmts.User") (width 0.1) (tstamp 0b07b651-a88a-477f-9193-126b8f1f365b))
    (fp_line (start 5.871203 5.943179) (end 5.871202 6.19717) (layer "Cmts.User") (width 0.1) (tstamp 0e7a2c21-dcf8-44af-91b1-45fc78514406))
    (fp_line (start 4.3688 5.0292) (end 4.36879 7.677275) (layer "Cmts.User") (width 0.1) (tstamp 1bb67da2-8646-4a3e-8941-8a7dc432c5e2))
    (fp_line (start -1.997721 -5.509607) (end -2.251713 -5.636603) (layer "Cmts.User") (width 0.1) (tstamp 21f689da-fa20-4a5d-af3d-5963f274b1ca))
    (fp_line (start 8.235227 4.775208) (end 8.362223 5.0292) (layer "Cmts.User") (width 0.1) (tstamp 2450e3a7-d44c-4abd-b6ce-f2cc569ab2c8))
    (fp_line (start -4.015758 -6.732612) (end -4.26975 -6.859608) (layer "Cmts.User") (width 0.1) (tstamp 26ffd3d7-f31b-4956-9b1e-0f163f85f727))
    (fp_line (start 0.654034 -5.732534) (end 0.654034 -5.986525) (layer "Cmts.User") (width 0.1) (tstamp 28f933d2-67be-44ce-932f-d02ce7346533))
    (fp_line (start 0.40005 -3.51028) (end 0.40004 -6.24053) (layer "Cmts.User") (width 0.1) (tstamp 2b12e5be-590c-407a-9e05-43d9781612a9))
    (fp_line (start 8.489218 4.775207) (end 8.362223 5.0292) (layer "Cmts.User") (width 0.1) (tstamp 2d7f354c-ed12-4398-b7ad-7ee02e36eaad))
    (fp_line (start 5.871202 6.19717) (end 6.125195 6.070175) (layer "Cmts.User") (width 0.1) (tstamp 31e7ee39-fce5-4601-b99d-d5bd88a594bb))
    (fp_line (start -2.25171 -4.71932) (end -2.251715 -6.017603) (layer "Cmts.User") (width 0.1) (tstamp 3f38db52-5a47-4e28-92c4-47d34fb2e0f4))
    (fp_line (start -3.006086 -5.763599) (end -3.006086 -5.509608) (layer "Cmts.User") (width 0.1) (tstamp 40d55fc1-c15d-4723-a053-05281b37078a))
    (fp_line (start 8.235228 -4.775207) (end 8.362223 -5.0292) (layer "Cmts.User") (width 0.1) (tstamp 4194f2e3-1f00-4ec9-bb29-7102230c4e10))
    (fp_line (start 0.400041 -5.85953) (end 1.200141 -5.85953) (layer "Cmts.User") (width 0.1) (tstamp 47b0306e-332e-4d36-ba66-09b8f424ac3e))
    (fp_line (start 0.946149 -5.986526) (end 1.200141 -5.85953) (layer "Cmts.User") (width 0.1) (tstamp 4cb5fc6e-f1c3-40b9-b5dd-74ac4f8f7104))
    (fp_line (start 4.015737 -6.986603) (end 4.26973 -6.859608) (layer "Cmts.User") (width 0.1) (tstamp 4e6f6086-9179-4736-838a-fb453beb7efc))
    (fp_line (start 8.362223 -5.0292) (end 8.362223 5.0292) (layer "Cmts.User") (width 0.1) (tstamp 538d3f8e-05fb-4a9b-a2b0-a58ce2d3407c))
    (fp_line (start 4.015737 -6.732613) (end 4.26973 -6.859608) (layer "Cmts.User") (width 0.1) (tstamp 53c10b40-c1fd-4430-b5f5-726ec2f47f5a))
    (fp_line (start 4.3688 -5.0292) (end 8.743223 -5.0292) (layer "Cmts.User") (width 0.1) (tstamp 56717068-3856-48eb-88f3-e26f9ff88ecd))
    (fp_line (start -6.125225 6.070175) (end 6.125195 6.070175) (layer "Cmts.User") (width 0.1) (tstamp 6642f1f1-d598-4296-b693-0aec1566fb39))
    (fp_line (start 1.20015 -3.51028) (end 1.20014 -6.24053) (layer "Cmts.User") (width 0.1) (tstamp 6961771e-65d8-4d82-9933-475e041a2548))
    (fp_line (start -4.26975 -6.859608) (end 4.26973 -6.859608) (layer "Cmts.User") (width 0.1) (tstamp 6af43565-3f18-4ab3-b99e-ca4c4bf55d74))
    (fp_line (start -1.736093 -5.636603) (end -2.752093 -5.636603) (layer "Cmts.User") (width 0.1) (tstamp 6d0945fd-06bb-415b-868d-bf300001db81))
    (fp_line (start -4.015758 -6.986602) (end -4.26975 -6.859608) (layer "Cmts.User") (width 0.1) (tstamp 7499a34f-a29b-4d76-8e5a-94b100c37657))
    (fp_line (start -4.26974 -4.00939) (end -4.269752 -7.240608) (layer "Cmts.User") (width 0.1) (tstamp 7d3ed287-a6f9-4cb3-b29b-99f864c5641b))
    (fp_line (start -4.3688 5.0292) (end -4.36881 7.677275) (layer "Cmts.User") (width 0.1) (tstamp 7ebb75ee-ae53-47c6-9e04-799a9d6819db))
    (fp_line (start 0.654034 -5.986525) (end 0.400041 -5.85953) (layer "Cmts.User") (width 0.1) (tstamp 7f4538bd-9c29-4a8e-896d-5bbed85d1edb))
    (fp_line (start -5.871232 5.94318) (end -6.125225 6.070175) (layer "Cmts.User") (width 0.1) (tstamp 81d7566c-0444-4724-b5b4-56c5f67ec813))
    (fp_line (start 4.3688 5.0292) (end 8.743223 5.0292) (layer "Cmts.User") (width 0.1) (tstamp 8d57a06d-63c8-429b-be77-9994384c3d32))
    (fp_line (start 4.26974 -4.00939) (end 4.269728 -7.240608) (layer "Cmts.User") (width 0.1) (tstamp 8edb83a3-2f94-48a8-b0da-1845182dcb7e))
    (fp_line (start 5.871203 5.943179) (end 6.125195 6.070175) (layer "Cmts.User") (width 0.1) (tstamp 935161a9-a931-49c4-823a-3687fe00429a))
    (fp_line (start 4.114799 7.169279) (end 4.114799 7.42327) (layer "Cmts.User") (width 0.1) (tstamp 97b217f2-e913-4e4d-95e4-d904129d3e27))
    (fp_line (start -5.871232 6.197171) (end -6.125225 6.070175) (layer "Cmts.User") (width 0.1) (tstamp b25a3e84-8fb2-48fb-9a9f-e843310d8593))
    (fp_line (start -1.997721 -5.509607) (end -1.997721 -5.763598) (layer "Cmts.User") (width 0.1) (tstamp c53e7683-e00c-424b-b091-af2d0e9dc76e))
    (fp_line (start 4.015737 -6.986603) (end 4.015737 -6.732613) (layer "Cmts.User") (width 0.1) (tstamp c54236f8-0e1f-4523-ae75-f4147e7b2115))
    (fp_line (start -4.114816 7.423271) (end -4.114815 7.16928) (layer "Cmts.User") (width 0.1) (tstamp c65c47c6-e2bf-4d33-a01a-efe298668f24))
    (fp_line (start -4.114816 7.423271) (end -4.368808 7.296275) (layer "Cmts.User") (width 0.1) (tstamp cd31097a-a019-49b2-a470-32a4e4c2da17))
    (fp_line (start -4.368808 7.296275) (end 4.368792 7.296275) (layer "Cmts.User") (width 0.1) (tstamp d0a31918-9c94-4543-9b46-ff05f8547db3))
    (fp_line (start 8.235228 -4.775207) (end 8.489219 -4.775208) (layer "Cmts.User") (width 0.1) (tstamp d1e87d58-6c5b-473a-8e1a-1d2eb0bf0a76))
    (fp_line (start -3.267713 -5.636603) (end -2.251713 -5.636603) (layer "Cmts.User") (width 0.1) (tstamp d275641e-d61a-4444-baf8-de666eca65bb))
    (fp_line (start 0.946149 -5.732535) (end 1.200141 -5.85953) (layer "Cmts.User") (width 0.1) (tstamp d2de1311-ad0b-410d-959d-64a481d605e3))
    (fp_line (start -4.015758 -6.732612) (end -4.015758 -6.986602) (layer "Cmts.User") (width 0.1) (tstamp d4a7b0ec-3652-4c19-b41f-76b7bf4f136e))
    (fp_line (start -6.12521 2.04089) (end -6.125226 6.451175) (layer "Cmts.User") (width 0.1) (tstamp d500d68a-1e3c-48dc-afb4-8330365ac476))
    (fp_line (start -2.75209 -4.71932) (end -2.752095 -6.017603) (layer "Cmts.User") (width 0.1) (tstamp d9d0e041-8645-4869-938e-ae972074e1db))
    (fp_line (start 8.489218 4.775207) (end 8.235227 4.775208) (layer "Cmts.User") (width 0.1) (tstamp e1da2843-bbdb-4639-9c05-e137139dbda2))
    (fp_line (start 6.12521 2.04089) (end 6.125194 6.451175) (layer "Cmts.User") (width 0.1) (tstamp e2b081b3-6629-48e4-bb84-bce2fbb0ad3c))
    (fp_line (start 4.114799 7.169279) (end 4.368792 7.296275) (layer "Cmts.User") (width 0.1) (tstamp e38c69f4-764b-44f2-a02e-80c8f41f57b2))
    (fp_line (start 8.489219 -4.775208) (end 8.362223 -5.0292) (layer "Cmts.User") (width 0.1) (tstamp eae28852-07de-418a-a755-c32af395215e))
    (fp_line (start 4.114799 7.42327) (end 4.368792 7.296275) (layer "Cmts.User") (width 0.1) (tstamp ec71c00c-e07d-468e-85f7-deea8c609a9c))
    (fp_line (start -3.006086 -5.509608) (end -2.752093 -5.636603) (layer "Cmts.User") (width 0.1) (tstamp f334fc85-99fb-492b-ab8a-835780b47d43))
    (fp_line (start -1.997721 -5.763598) (end -2.251713 -5.636603) (layer "Cmts.User") (width 0.1) (tstamp faccf948-81ec-4c70-ab34-0f686daace0e))
    (fp_line (start -3.006086 -5.763599) (end -2.752093 -5.636603) (layer "Cmts.User") (width 0.1) (tstamp fb245f67-0dc9-45b2-b683-3e5e774be30c))
    (fp_line (start 0.946149 -5.986526) (end 0.946149 -5.732535) (layer "Cmts.User") (width 0.1) (tstamp fc30d23f-deb9-4089-8f6a-177f892a3a94))
    (fp_line (start -5.871232 6.197171) (end -5.871232 5.94318) (layer "Cmts.User") (width 0.1) (tstamp fe69dc8a-c982-4128-8e13-17a8ef22562a))
    (fp_line (start 4.96824 -5.16509) (end 4.6228 -5.16509) (layer "F.CrtYd") (width 0.05) (tstamp 02881bc4-c167-4696-bf99-67d39086f260))
    (fp_line (start 6.82371 3.7592) (end 4.8768 3.7592) (layer "F.CrtYd") (width 0.05) (tstamp 0cae2f76-712c-480d-abf0-e271426025cd))
    (fp_line (start 4.6228 -5.16509) (end 4.6228 -5.2832) (layer "F.CrtYd") (width 0.05) (tstamp 135ce1f4-3829-4dbd-b371-eb7455a08c9c))
    (fp_line (start 4.6228 -2.85369) (end 4.96824 -2.85369) (layer "F.CrtYd") (width 0.05) (tstamp 1cf014a8-a8d5-4be5-be31-c62a667785f7))
    (fp_line (start -4.96824 -5.16509) (end -4.96824 -2.85369) (layer "F.CrtYd") (width 0.05) (tstamp 21436863-8436-482a-a8e1-3c734442aa54))
    (fp_line (start -4.8768 3.19659) (end -4.8768 3.7592) (layer "F.CrtYd") (width 0.05) (tstamp 26ff4131-5e55-4436-ac05-bf5b06b432e1))
    (fp_line (start 6.82371 3.19659) (end 6.82371 0.88519) (layer "F.CrtYd") (width 0.05) (tstamp 2bc3966e-5e71-4e4d-a658-4ca730907492))
    (fp_line (start 4.6228 -2.85369) (end 4.96824 -2.85369) (layer "F.CrtYd") (width 0.05) (tstamp 2df75079-6412-4fca-8f0c-f9de11c00601))
    (fp_line (start -4.6228 -5.16509) (end -4.96824 -5.16509) (layer "F.CrtYd") (width 0.05) (tstamp 31af3d02-faa7-421f-b7f4-befea5d01328))
    (fp_line (start -4.8768 3.19659) (end -4.8768 3.7592) (layer "F.CrtYd") (width 0.05) (tstamp 355f3154-4117-4c79-9c33-94fb269d6cea))
    (fp_line (start -3.15849 -5.2832) (end -4.6228 -5.2832) (layer "F.CrtYd") (width 0.05) (tstamp 3932e964-12b2-4532-8ace-17cba83f402a))
    (fp_line (start -4.96824 -2.85369) (end -4.6228 -2.85369) (layer "F.CrtYd") (width 0.05) (tstamp 3a53dbc3-910e-41b7-be0f-f7c00a7b4a6e))
    (fp_line (start 4.96824 -5.16509) (end 4.6228 -5.16509) (layer "F.CrtYd") (width 0.05) (tstamp 42fc3f83-1cb9-43a5-abf3-9664cb39a168))
    (fp_line (start -6.82371 3.7592) (end -6.82371 5.2832) (layer "F.CrtYd") (width 0.05) (tstamp 52a81c82-1c51-4453-a60a-e0e61c45a452))
    (fp_line (start -4.6228 -2.85369) (end -4.6228 -2.2352) (layer "F.CrtYd") (width 0.05) (tstamp 5b6b99e3-d9cb-4824-89f3-8af7fbd7382d))
    (fp_line (start -4.6228 -5.16509) (end -4.96824 -5.16509) (layer "F.CrtYd") (width 0.05) (tstamp 5c50ab92-9c51-4108-b217-cd0c5c8afba1))
    (fp_line (start -4.8768 3.7592) (end -6.82371 3.7592) (layer "F.CrtYd") (width 0.05) (tstamp 5ee077c1-dfb5-4c1c-8c62-991ad696194f))
    (fp_line (start 4.6228 -5.16509) (end 4.6228 -5.2832) (layer "F.CrtYd") (width 0.05) (tstamp 623298f8-c388-47a8-abb8-32ba2d8ec850))
    (fp_line (start -6.82371 3.7592) (end -6.82371 5.2832) (layer "F.CrtYd") (width 0.05) (tstamp 62514411-396b-401f-a000-a3cfe4e9b990))
    (fp_line (start 6.82371 0.88519) (end 4.8768 0.88519) (layer "F.CrtYd") (width 0.05) (tstamp 66472a0a-329f-48f0-90d6-134131473fc9))
    (fp_line (start 4.8768 3.7592) (end 4.8768 3.19659) (layer "F.CrtYd") (width 0.05) (tstamp 667bde89-1599-4d90-8e2e-9a09a8a135c7))
    (fp_line (start 6.82371 3.7592) (end 4.8768 3.7592) (layer "F.CrtYd") (width 0.05) (tstamp 67f7df65-d401-40cc-9b3e-add343d8b884))
    (fp_line (start 6.82371 5.2832) (end 6.82371 3.7592) (layer "F.CrtYd") (width 0.05) (tstamp 698ad851-3cb3-4f25-b174-dffa16ac691b))
    (fp_line (start 6.82371 5.2832) (end 6.82371 3.7592) (layer "F.CrtYd") (width 0.05) (tstamp 6c708012-8d23-4783-be3a-941f9cabe6b3))
    (fp_line (start -4.8768 -2.2352) (end -4.8768 0.88519) (layer "F.CrtYd") (width 0.05) (tstamp 6ecd9aac-98a1-492b-a433-1feef4fd02f8))
    (fp_line (start 4.8768 0.88519) (end 4.8768 -2.2352) (layer "F.CrtYd") (width 0.05) (tstamp 72d8bcea-f74f-4b09-bffb-4897edd857a8))
    (fp_line (start -4.6228 -5.2832) (end -4.6228 -5.16509) (layer "F.CrtYd") (width 0.05) (tstamp 7901b4bc-1f90-468b-92b0-45fd78d8ceed))
    (fp_line (start -4.6228 -5.2832) (end -4.6228 -5.16509) (layer "F.CrtYd") (width 0.05) (tstamp 7978cc11-201f-4a00-8a7b-f5a0b0faff78))
    (fp_line (start 3.15849 -5.41782) (end -3.15849 -5.41782) (layer "F.CrtYd") (width 0.05) (tstamp 79b8f404-5126-4c5d-8ed4-1c882b204645))
    (fp_line (start -6.82371 0.88519) (end -6.82371 3.19659) (layer "F.CrtYd") (width 0.05) (tstamp 7a726604-11c1-4dba-b160-62d8fbf8acd3))
    (fp_line (start 4.8768 3.19659) (end 6.82371 3.19659) (layer "F.CrtYd") (width 0.05) (tstamp 7b48ba9a-0084-432b-b2a0-b82c08760d99))
    (fp_line (start 3.15849 -5.2832) (end 3.15849 -5.41782) (layer "F.CrtYd") (width 0.05) (tstamp 7c901f82-266f-43db-b201-37c3d3884082))
    (fp_line (start -4.6228 -2.2352) (end -4.8768 -2.2352) (layer "F.CrtYd") (width 0.05) (tstamp 7e6e3680-3a52-4c83-aa52-c0d2793af419))
    (fp_line (start 4.8768 0.88519) (end 4.8768 -2.2352) (layer "F.CrtYd") (width 0.05) (tstamp 80133150-31eb-44ab-973f-c169c48092c0))
    (fp_line (start 3.15849 -5.41782) (end -3.15849 -5.41782) (layer "F.CrtYd") (width 0.05) (tstamp 8a0ac2ef-249a-4919-89da-37dddd8a8ee8))
    (fp_line (start -3.15849 -5.41782) (end -3.15849 -5.2832) (layer "F.CrtYd") (width 0.05) (tstamp 995995f0-877e-425c-87d4-c2072cf0ccaf))
    (fp_line (start -6.82371 5.2832) (end 6.82371 5.2832) (layer "F.CrtYd") (width 0.05) (tstamp 9dbca6cf-5946-45b0-810b-f89ac6746f9e))
    (fp_line (start -3.15849 -5.2832) (end -4.6228 -5.2832) (layer "F.CrtYd") (width 0.05) (tstamp a04a6fab-d340-4627-a53e-efa188723d79))
    (fp_line (start -6.82371 5.2832) (end 6.82371 5.2832) (layer "F.CrtYd") (width 0.05) (tstamp a08dffb2-a796-42af-a3e8-6e5e8e79468e))
    (fp_line (start 4.96824 -2.85369) (end 4.96824 -5.16509) (layer "F.CrtYd") (width 0.05) (tstamp a212d0df-e7fb-4d1f-8d31-ce6d6bb0a100))
    (fp_line (start -6.82371 3.19659) (end -4.8768 3.19659) (layer "F.CrtYd") (width 0.05) (tstamp a5623048-b6e2-4d75-8204-f301d76c38ae))
    (fp_line (start 4.8768 3.7592) (end 4.8768 3.19659) (layer "F.CrtYd") (width 0.05) (tstamp a594533a-77a4-4ac3-b3e0-5799faa9c829))
    (fp_line (start -3.15849 -5.41782) (end -3.15849 -5.2832) (layer "F.CrtYd") (width 0.05) (tstamp ae960983-acf5-4423-a871-39a8835b74e0))
    (fp_line (start -4.6228 -2.85369) (end -4.6228 -2.2352) (layer "F.CrtYd") (width 0.05) (tstamp b196eeb5-9827-48bd-a9e9-6284cab10af4))
    (fp_line (start 4.8768 -2.2352) (end 4.6228 -2.2352) (layer "F.CrtYd") (width 0.05) (tstamp b298fe2d-d733-416c-bd30-4b00b8da0790))
    (fp_line (start -6.82371 3.19659) (end -4.8768 3.19659) (layer "F.CrtYd") (width 0.05) (tstamp b72d1bcd-362f-48d1-a139-3b9338e4a534))
    (fp_line (start 4.6228 -5.2832) (end 3.15849 -5.2832) (layer "F.CrtYd") (width 0.05) (tstamp b7eb3b5e-aaa9-4cda-bc4d-37337b9372b1))
    (fp_line (start -4.96824 -2.85369) (end -4.6228 -2.85369) (layer "F.CrtYd") (width 0.05) (tstamp bf10613d-46ee-4938-b507-1e72e18f09a4))
    (fp_line (start -4.8768 0.88519) (end -6.82371 0.88519) (layer "F.CrtYd") (width 0.05) (tstamp c71738ef-b54b-4209-af76-b611172e4bda))
    (fp_line (start 4.6228 -5.2832) (end 3.15849 -5.2832) (layer "F.CrtYd") (width 0.05) (tstamp c8bc1921-e265-4da8-99c9-a10a4e74f25f))
    (fp_line (start 4.8768 -2.2352) (end 4.6228 -2.2352) (layer "F.CrtYd") (width 0.05) (tstamp c90446e3-674b-45d7-875c-118bddf09b54))
    (fp_line (start 4.8768 3.19659) (end 6.82371 3.19659) (layer "F.CrtYd") (width 0.05) (tstamp d36a9e82-9d08-4d91-b448-a277c46b90e5))
    (fp_line (start -4.8768 -2.2352) (end -4.8768 0.88519) (layer "F.CrtYd") (width 0.05) (tstamp d403d4d1-4cd4-4361-a0d7-e01ad5c86880))
    (fp_line (start 4.96824 -2.85369) (end 4.96824 -5.16509) (layer "F.CrtYd") (width 0.05) (tstamp d4e49007-99e5-46ea-af5e-45c37914c72d))
    (fp_line (start 3.15849 -5.2832) (end 3.15849 -5.41782) (layer "F.CrtYd") (width 0.05) (tstamp db70bbb5-4b6d-4b59-8e3b-4f1802473f78))
    (fp_line (start -4.96824 -5.16509) (end -4.96824 -2.85369) (layer "F.CrtYd") (width 0.05) (tstamp dbc656d0-384e-49e5-9417-629869fad3d6))
    (fp_line (start -6.82371 0.88519) (end -6.82371 3.19659) (layer "F.CrtYd") (width 0.05) (tstamp dedb4f21-8d8c-4463-a80b-5cee6364ea22))
    (fp_line (start -4.8768 3.7592) (end -6.82371 3.7592) (layer "F.CrtYd") (width 0.05) (tstamp df90c2b8-7d92-4783-b8b4-0746312927de))
    (fp_line (start -4.8768 0.88519) (end -6.82371 0.88519) (layer "F.CrtYd") (width 0.05) (tstamp e551ca7a-abca-48b5-8e59-1b35ad61df61))
    (fp_line (start 4.6228 -2.2352) (end 4.6228 -2.85369) (layer "F.CrtYd") (width 0.05) (tstamp e5ab3f94-e7be-47c6-b5b0-4cd542576336))
    (fp_line (start 6.82371 0.88519) (end 4.8768 0.88519) (layer "F.CrtYd") (width 0.05) (tstamp e867e740-5a36-4155-aaae-e3338602d58e))
    (fp_line (start 6.82371 3.19659) (end 6.82371 0.88519) (layer "F.CrtYd") (width 0.05) (tstamp effafa09-49ab-48a1-9d5e-7cdf27896991))
    (fp_line (start 4.6228 -2.2352) (end 4.6228 -2.85369) (layer "F.CrtYd") (width 0.05) (tstamp f04e9373-0335-47aa-9f85-2bd13573a1d8))
    (fp_line (start -4.6228 -2.2352) (end -4.8768 -2.2352) (layer "F.CrtYd") (width 0.05) (tstamp fbd492a3-09ad-49d1-b109-ccf04502190d))
    (fp_line (start -4.3688 -5.0292) (end -4.3688 5.0292) (layer "F.Fab") (width 0.1) (tstamp 34dfcce7-37c7-4095-8046-8f26494d2165))
    (fp_line (start 4.3688 5.0292) (end 4.3688 -5.0292) (layer "F.Fab") (width 0.1) (tstamp 426c11ad-7217-4fe3-8cd1-ad73cf0a5f1f))
    (fp_line (start -4.3688 5.0292) (end 4.3688 5.0292) (layer "F.Fab") (width 0.1) (tstamp c6bdba31-8c15-4f95-b8aa-17dae531a5c1))
    (fp_line (start 4.3688 -5.0292) (end -4.3688 -5.0292) (layer "F.Fab") (width 0.1) (tstamp f1749e6e-7672-42c2-937d-471e593f3657))
    (pad "" np_thru_hole circle locked (at -4.26974 -4.45389) (size 0.508 0.508) (drill 0.508) (layers *.Cu *.Mask) (tstamp 021d8d9a-80e8-4cf3-b7bc-47ae75d0acea))
    (pad "" np_thru_hole circle locked (at -4.26974 -3.56489) (size 0.508 0.508) (drill 0.508) (layers *.Cu *.Mask) (tstamp 3547dbe2-7e64-4b62-8757-5a1d8054e2a5))
    (pad "" np_thru_hole circle locked (at -3.59918 -2.80924) (size 0.6604 0.6604) (drill 0.6604) (layers *.Cu *.Mask) (tstamp 43a78ecc-3ebe-4e44-b350-f321e912cc3a))
    (pad "" np_thru_hole circle locked (at 3.45948 -2.80924) (size 0.6604 0.6604) (drill 0.6604) (layers *.Cu *.Mask) (tstamp 4aea3901-10ab-42bd-8809-944e76386884))
    (pad "" np_thru_hole circle locked (at 6.12521 2.48539) (size 0.508 0.508) (drill 0.508) (layers *.Cu *.Mask) (tstamp 585e1053-3833-4a09-9f34-d1284e0bfdff))
    (pad "" np_thru_hole circle locked (at -6.12521 1.59639) (size 0.508 0.508) (drill 0.508) (layers *.Cu *.Mask) (tstamp 96125ad9-f61f-4aab-a8f4-eedb0e01cec6))
    (pad "" np_thru_hole circle locked (at 3.73888 -2.80924) (size 0.6604 0.6604) (drill 0.6604) (layers *.Cu *.Mask) (tstamp ad878f25-94ad-4f93-8d80-e4df10aa6d60))
    (pad "" np_thru_hole circle locked (at 4.26974 -4.45389) (size 0.508 0.508) (drill 0.508) (layers *.Cu *.Mask) (tstamp b0b1c2b7-b9f3-4f5f-b10d-e40e2e42dc6e))
    (pad "" np_thru_hole circle locked (at 4.26974 -3.56489) (size 0.508 0.508) (drill 0.508) (layers *.Cu *.Mask) (tstamp c6e98cca-d1c9-4960-9a22-57831612bd46))
    (pad "" np_thru_hole circle locked (at -6.12521 2.48539) (size 0.508 0.508) (drill 0.508) (layers *.Cu *.Mask) (tstamp cb80a32a-ffce-4cc6-b151-6995e22a43f9))
    (pad "" np_thru_hole circle locked (at 6.12521 1.59639) (size 0.508 0.508) (drill 0.508) (layers *.Cu *.Mask) (tstamp d773b401-c1de-4d85-b247-ac1485c40245))
    (pad "25" smd oval locked (at -4.26974 -4.00939) (size 0.889 1.8034) (layers "F.Cu" "F.Paste" "F.Mask") (tstamp 3b044e91-4ebd-46d5-9caa-2a59086929b0))
    (pad "26" smd oval locked (at 4.26974 -4.00939) (size 0.889 1.8034) (layers "F.Cu" "F.Paste" "F.Mask") (tstamp fefd1344-4109-4486-a9d3-57ea1473ee25))
    (pad "27" smd oval locked (at -6.12521 2.04089) (size 0.889 1.8034) (layers "F.Cu" "F.Paste" "F.Mask") (tstamp 6dfe2c5f-beb2-4851-a5f1-8869f93ba078))
    (pad "28" smd oval locked (at 6.12521 2.04089) (size 0.889 1.8034) (layers "F.Cu" "F.Paste" "F.Mask") (tstamp 8f24c18c-3901-4ebc-a973-381b0a20646f))
    (pad "A1" smd rect locked (at -2.75209 -4.71932) (size 0.3048 0.889) (layers "F.Cu" "F.Paste" "F.Mask")
      (net 1 "GND") (pinfunction "GND") (pintype "unspecified") (tstamp 163e1035-8fbe-4d43-af78-0a7c500b5dac))
    (pad "A2" smd rect locked (at -2.25171 -4.71932) (size 0.3048 0.889) (layers "F.Cu" "F.Paste" "F.Mask")
      (net 2 "unconnected-(J1-PadA2)") (pinfunction "SSTXP1") (pintype "unspecified+no_connect") (tstamp c6b35717-fe71-489c-8dbe-c0d405d453cb))
    (pad "A3" smd rect locked (at -1.75133 -4.71932) (size 0.3048 0.889) (layers "F.Cu" "F.Paste" "F.Mask")
      (net 3 "unconnected-(J1-PadA3)") (pinfunction "SSTXN1") (pintype "unspecified+no_connect") (tstamp a4ae133a-73aa-43ac-808a-7c57138cd3be))
    (pad "A4" smd rect locked (at -1.25095 -4.71932) (size 0.3048 0.889) (layers "F.Cu" "F.Paste" "F.Mask")
      (net 4 "Net-(J1-PadA4)") (pinfunction "VBUS") (pintype "unspecified") (tstamp 8428b2a6-126e-42f1-a084-e2d8f240f7a5))
    (pad "A5" smd rect locked (at -0.75057 -4.71932) (size 0.3048 0.889) (layers "F.Cu" "F.Paste" "F.Mask")
      (net 5 "unconnected-(J1-PadA5)") (pinfunction "CC1") (pintype "unspecified") (tstamp d0fe94fd-4f06-42c4-96aa-667a43364faf))
    (pad "A6" smd rect locked (at -0.25019 -4.71932) (size 0.3048 0.889) (layers "F.Cu" "F.Paste" "F.Mask")
      (net 6 "Net-(J1-PadA6)") (pinfunction "DP1") (pintype "unspecified") (tstamp 0f03bc63-502f-4ed7-8816-a732b4d46d09))
    (pad "A7" smd rect locked (at 0.25019 -4.71932) (size 0.3048 0.889) (layers "F.Cu" "F.Paste" "F.Mask")
      (net 7 "Net-(J1-PadA7)") (pinfunction "DN1") (pintype "unspecified") (tstamp bb6a34fd-f1f6-4ec1-9b92-b35ffedbb1cb))
    (pad "A8" smd rect locked (at 0.75057 -4.71932) (size 0.3048 0.889) (layers "F.Cu" "F.Paste" "F.Mask")
      (net 8 "unconnected-(J1-PadA8)") (pinfunction "SBU1") (pintype "unspecified+no_connect") (tstamp 80df209d-fb74-4151-a560-62d91ce89092))
    (pad "A9" smd rect locked (at 1.25095 -4.71932) (size 0.3048 0.889) (layers "F.Cu" "F.Paste" "F.Mask")
      (net 9 "unconnected-(J1-PadA9)") (pinfunction "VBUS") (pintype "unspecified") (tstamp 05cd5b71-ef43-42f6-a611-962eae317f5e))
    (pad "A10" smd rect locked (at 1.75133 -4.71932) (size 0.3048 0.889) (layers "F.Cu" "F.Paste" "F.Mask")
      (net 10 "unconnected-(J1-PadA10)") (pinfunction "SSRXN2") (pintype "unspecified+no_connect") (tstamp 2609113a-c6b1-4d45-a410-04aa1320f6d9))
    (pad "A11" smd rect locked (at 2.25171 -4.71932) (size 0.3048 0.889) (layers "F.Cu" "F.Paste" "F.Mask")
      (net 11 "unconnected-(J1-PadA11)") (pinfunction "SSRXP2") (pintype "unspecified+no_connect") (tstamp 02063af7-8bb0-4052-8c00-05ca9a75a6e7))
    (pad "A12" smd rect locked (at 2.75209 -4.71932) (size 0.3048 0.889) (layers "F.Cu" "F.Paste" "F.Mask")
      (net 12 "unconnected-(J1-PadA12)") (pinfunction "GND") (pintype "unspecified") (tstamp 329aae8c-612b-491e-b942-4ba0e1243a98))
    (pad "B1" thru_hole circle locked (at 2.80035 -3.51028) (size 0.6604 0.6604) (drill 0.4064) (layers *.Cu *.Mask)
      (net 13 "unconnected-(J1-PadB1)") (pinfunction "GND") (pintype "unspecified") (tstamp 9300337d-80bc-4165-a97a-1c0e095bad53))
    (pad "B2" thru_hole circle locked (at 2.4003 -2.80924) (size 0.6604 0.6604) (drill 0.4064) (layers *.Cu *.Mask)
      (net 14 "unconnected-(J1-PadB2)") (pinfunction "SSTXP2") (pintype "unspecified+no_connect") (tstamp ef764933-cf97-402a-91f8-6875b3540e96))
    (pad "B3" thru_hole circle locked (at 1.6002 -2.80924) (size 0.6604 0.6604) (drill 0.4064) (layers *.Cu *.Mask)
      (net 15 "unconnected-(J1-PadB3)") (pinfunction "SSTXN2") (pintype "unspecified+no_connect") (tstamp b9afbb1e-dce0-41bf-882c-8cc066f1eaf0))
    (pad "B4" thru_hole circle locked (at 1.20015 -3.51028) (size 0.6604 0.6604) (drill 0.4064) (layers *.Cu *.Mask)
      (net 16 "unconnected-(J1-PadB4)") (pinfunction "VBUS") (pintype "unspecified") (tstamp c343a034-885d-4d38-abec-b8cff16d48e5))
    (pad "B5" thru_hole circle locked (at 0.8001 -2.80924) (size 0.6604 0.6604) (drill 0.4064) (layers *.Cu *.Mask)
      (net 17 "unconnected-(J1-PadB5)") (pinfunction "CC2") (pintype "unspecified") (tstamp 573ed4f1-6f65-4b47-b4e7-33ed980498f7))
    (pad "B6" thru_hole circle locked (at 0.40005 -3.51028) (size 0.6604 0.6604) (drill 0.4064) (layers *.Cu *.Mask)
      (net 6 "Net-(J1-PadA6)") (pinfunction "DP1") (pintype "unspecified") (tstamp cb9edb19-e90d-407f-98b3-6fc28b1c3c45))
    (pad "B7" thru_hole circle locked (at -0.40005 -3.51028) (size 0.6604 0.6604) (drill 0.4064) (layers *.Cu *.Mask)
      (net 7 "Net-(J1-PadA7)") (pinfunction "DN1") (pintype "unspecified") (tstamp 0a1bb744-b995-4645-951a-73e7cdbb694b))
    (pad "B8" thru_hole circle locked (at -0.8001 -2.80924) (size 0.6604 0.6604) (drill 0.4064) (layers *.Cu *.Mask)
      (net 18 "unconnected-(J1-PadB8)") (pinfunction "SBU2") (pintype "unspecified+no_connect") (tstamp e1ae0409-ace6-4f4e-83ac-77b333eed95f))
    (pad "B9" thru_hole circle locked (at -1.20015 -3.51028) (size 0.6604 0.6604) (drill 0.4064) (layers *.Cu *.Mask)
      (net 4 "Net-(J1-PadA4)") (pinfunction "VBUS") (pintype "unspecified") (tstamp 262b76b0-2be4-4119-895a-00407fa70a4b))
    (pad "B10" thru_hole circle locked (at -1.6002 -2.80924) (size 0.6604 0.6604) (drill 0.4064) (layers *.Cu *.Mask)
      (net 19 "unconnected-(J1-PadB10)") (pinfunction "SSRXN1") (pintype "unspecified+no_connect") (tstamp 9f70ee88-dc62-4405-a10c-8ab99de6e924))
    (pad "B11" thru_hole circle locked (at -2.4003 -2.80924) (size 0.6604 0.6604) (drill 0.4064) (layers *.Cu *.Mask)
      (net 20 "unconnected-(J1-PadB11)") (pinfunction "SSRXP1") (pintype "unspecified+no_connect") (tstamp 2b9f55ca-34c0-4d31-9b4b-03c065647a96))
    (pad "B12" thru_hole circle locked (at -2.80035 -3.51028) (size 0.6604 0.6604) (drill 0.4064) (layers *.Cu *.Mask)
      (net 21 "unconnected-(J1-PadB12)") (pinfunction "GND") (pintype "unspecified") (tstamp f52e5e4a-f2b6-4c2a-b6b1-296634f15391))
  )

)
